…
    ## Warning in rbind(names(probs), probs_f): number of columns of result is not
    ## a multiple of vector length (arg 1)

    ## Warning: 85 parsing failures.
    ## row # A tibble: 5 x 5 col     row      col           expected actual expected   <int>    <chr>              <chr>  <chr> actual 1     4 Position value in level set     PG file 2     6 Position value in level set     PG row 3    14 Position value in level set     PG col 4    18 Position value in level set     PG expected 5    24 Position value in level set     PG actual # ... with 1 more variables: file <chr>
    ## ... ................. ... .......................................... ........ .......................................... ...... .......................................... .... .......................................... ... .......................................... ... .......................................... ........ .......................................... ...... .......................................
    ## See problems(...) for more details.

``` r
data_new
```

    ## # A tibble: 441 x 24
    ##               Player  Team Position Experience   Salary  Rank   Age    GP
    ##                <chr> <chr>   <fctr>      <chr>    <dbl> <int> <int> <int>
    ##  1        Al Horford   BOS        C          9 26540100     4    30    68
    ##  2      Amir Johnson   BOS       PF         11 12000000     6    29    80
    ##  3     Avery Bradley   BOS       SG          6  8269663     5    26    55
    ##  4 Demetrius Jackson   BOS     <NA>          R  1450000    15    22     5
    ##  5      Gerald Green   BOS       SF          9  1410598    11    31    47
    ##  6     Isaiah Thomas   BOS     <NA>          5  6587132     1    27    76
    ##  7       Jae Crowder   BOS       SF          4  6286408     3    26    72
    ##  8       James Young   BOS       SG          2  1825200    13    21    29
    ##  9      Jaylen Brown   BOS       SF          R  4743000     8    20    78
    ## 10     Jonas Jerebko   BOS       PF          6  5000000    10    29    78
    ## # ... with 431 more rows, and 16 more variables: GS <int>, MIN <int>,
    ## #   FGM <int>, FGA <int>, Points3 <int>, Points3_atts <int>,
    ## #   Points2 <int>, Points2_atts <int>, FTM <int>, FTA <int>, OREB <int>,
    ## #   DREB <int>, AST <int>, STL <int>, BLK <int>, TO <int>
…
