…
Principal Components Analysis (PCA)
-----------------------------------

``` r
# select the variables that we are interested in from teams
team_new <- teams[, -c(1, 2, 3, 7, 15)]
# create pca object (containnig all the PC's)
pca <- prcomp(team_new, scale. = TRUE)
# add PC1 PC2 back to teams
teams_with_pc <- mutate(teams, pc1 = pca$x[ ,1], pc2 = pca$x[ ,2])
# rearrrange team by PC1 in descending order
select(arrange(teams_with_pc, desc(pc1)), team)
```

    ## # A tibble: 30 x 1
    ##     team
    ##    <chr>
    ##  1   GSW
    ##  2   MIN
    ##  3   SAS
    ##  4   PHO
    ##  5   LAC
    ##  6   BOS
    ##  7   OKC
    ##  8   MIL
    ##  9   MIA
    ## 10   DEN
    ## # ... with 20 more rows
…
Use the scaled PC1 to rank the teams:

``` r
select(arrange(teams_pc, desc(pc1_rescaled)), team)
```

    ## # A tibble: 30 x 1
    ##     team
    ##    <chr>
    ##  1   GSW
    ##  2   MIN
    ##  3   SAS
    ##  4   PHO
    ##  5   LAC
    ##  6   BOS
    ##  7   OKC
    ##  8   MIL
    ##  9   MIA
    ## 10   DEN
    ## # ... with 20 more rows
…
