…
``` r
# source : local data frame [6 x 19]
tbl_df(flights)
```

    ## # A tibble: 336,776 x 19
    ##     year month   day dep_time sched_dep_time dep_delay arr_time
    ##    <int> <int> <int>    <int>          <int>     <dbl>    <int>
    ##  1  2013     1     1      517            515         2      830
    ##  2  2013     1     1      533            529         4      850
    ##  3  2013     1     1      542            540         2      923
    ##  4  2013     1     1      544            545        -1     1004
    ##  5  2013     1     1      554            600        -6      812
    ##  6  2013     1     1      554            558        -4      740
    ##  7  2013     1     1      555            600        -5      913
    ##  8  2013     1     1      557            600        -3      709
    ##  9  2013     1     1      557            600        -3      838
    ## 10  2013     1     1      558            600        -2      753
    ## # ... with 336,766 more rows, and 12 more variables: sched_arr_time <int>,
    ## #   arr_delay <dbl>, carrier <chr>, flight <int>, tailnum <chr>,
    ## #   origin <chr>, dest <chr>, air_time <dbl>, distance <dbl>, hour <dbl>,
    ## #   minute <dbl>, time_hour <dttm>
…
``` r
class(flights)
```

    ## [1] "tbl_df"     "tbl"        "data.frame"

### **Variable filter function**

The feature was previously also implemented using indexes, and dplyr uses the select function to make filtering more convenient.

``` r
select(flights,year,month,day)
```

    ## # A tibble: 336,776 x 3
    ##     year month   day
    ##    <int> <int> <int>
    ##  1  2013     1     1
    ##  2  2013     1     1
    ##  3  2013     1     1
    ##  4  2013     1     1
    ##  5  2013     1     1
    ##  6  2013     1     1
    ##  7  2013     1     1
    ##  8  2013     1     1
    ##  9  2013     1     1
    ## 10  2013     1     1
    ## # ... with 336,766 more rows

``` r
select(flights,year:day)
```

    ## # A tibble: 336,776 x 3
    ##     year month   day
    ##    <int> <int> <int>
    ##  1  2013     1     1
    ##  2  2013     1     1
    ##  3  2013     1     1
    ##  4  2013     1     1
    ##  5  2013     1     1
    ##  6  2013     1     1
    ##  7  2013     1     1
    ##  8  2013     1     1
    ##  9  2013     1     1
    ## 10  2013     1     1
    ## # ... with 336,766 more rows

The 2 codes above represents select the first 3 colomns of data (year,month,day) Besides, we could also use the **distinct** function to filter duplicate rows according to the values of a column.

``` r
distinct(select(flights, origin,dest))
```

    ## # A tibble: 224 x 2
    ##    origin  dest
    ##     <chr> <chr>
    ##  1    EWR   IAH
    ##  2    LGA   IAH
    ##  3    JFK   MIA
    ##  4    JFK   BQN
    ##  5    LGA   ATL
    ##  6    EWR   ORD
    ##  7    EWR   FLL
    ##  8    LGA   IAD
    ##  9    JFK   MCO
    ## 10    LGA   ORD
    ## # ... with 214 more rows

The code above represents the data of all rows that are not identical to the destination combinations.

### **Character selection function**

**filter()** function provides a basic data screening. In the past, we used data.frame to screen the data in the index. For example, we wanted to find the data of January 1 to use Rcode：

``` r
flights[flights$month == 1 & flights$day == 1, ]
```

    ## # A tibble: 842 x 19
    ##     year month   day dep_time sched_dep_time dep_delay arr_time
    ##    <int> <int> <int>    <int>          <int>     <dbl>    <int>
    ##  1  2013     1     1      517            515         2      830
    ##  2  2013     1     1      533            529         4      850
    ##  3  2013     1     1      542            540         2      923
    ##  4  2013     1     1      544            545        -1     1004
    ##  5  2013     1     1      554            600        -6      812
    ##  6  2013     1     1      554            558        -4      740
    ##  7  2013     1     1      555            600        -5      913
    ##  8  2013     1     1      557            600        -3      709
    ##  9  2013     1     1      557            600        -3      838
    ## 10  2013     1     1      558            600        -2      753
    ## # ... with 832 more rows, and 12 more variables: sched_arr_time <int>,
    ## #   arr_delay <dbl>, carrier <chr>, flight <int>, tailnum <chr>,
    ## #   origin <chr>, dest <chr>, air_time <dbl>, distance <dbl>, hour <dbl>,
    ## #   minute <dbl>, time_hour <dttm>

In **dplyr** it provides a filter function that makes it easier to implement the above functionality:

``` r
filter(flights, month == 1, day ==1)
```

    ## # A tibble: 842 x 19
    ##     year month   day dep_time sched_dep_time dep_delay arr_time
    ##    <int> <int> <int>    <int>          <int>     <dbl>    <int>
    ##  1  2013     1     1      517            515         2      830
    ##  2  2013     1     1      533            529         4      850
    ##  3  2013     1     1      542            540         2      923
    ##  4  2013     1     1      544            545        -1     1004
    ##  5  2013     1     1      554            600        -6      812
    ##  6  2013     1     1      554            558        -4      740
    ##  7  2013     1     1      555            600        -5      913
    ##  8  2013     1     1      557            600        -3      709
    ##  9  2013     1     1      557            600        -3      838
    ## 10  2013     1     1      558            600        -2      753
    ## # ... with 832 more rows, and 12 more variables: sched_arr_time <int>,
    ## #   arr_delay <dbl>, carrier <chr>, flight <int>, tailnum <chr>,
    ## #   origin <chr>, dest <chr>, air_time <dbl>, distance <dbl>, hour <dbl>,
    ## #   minute <dbl>, time_hour <dttm>

For example, the statement will often be use :

``` r
filter(flights,month == 1 | month == 2)
```

    ## # A tibble: 51,955 x 19
    ##     year month   day dep_time sched_dep_time dep_delay arr_time
    ##    <int> <int> <int>    <int>          <int>     <dbl>    <int>
    ##  1  2013     1     1      517            515         2      830
    ##  2  2013     1     1      533            529         4      850
    ##  3  2013     1     1      542            540         2      923
    ##  4  2013     1     1      544            545        -1     1004
    ##  5  2013     1     1      554            600        -6      812
    ##  6  2013     1     1      554            558        -4      740
    ##  7  2013     1     1      555            600        -5      913
    ##  8  2013     1     1      557            600        -3      709
    ##  9  2013     1     1      557            600        -3      838
    ## 10  2013     1     1      558            600        -2      753
    ## # ... with 51,945 more rows, and 12 more variables: sched_arr_time <int>,
    ## #   arr_delay <dbl>, carrier <chr>, flight <int>, tailnum <chr>,
    ## #   origin <chr>, dest <chr>, air_time <dbl>, distance <dbl>, hour <dbl>,
    ## #   minute <dbl>, time_hour <dttm>

### **Variable filter function** arranfe

Besides **filter()** function, **dplyr** also provides a **arrange()** function that could help user to reorder the rows.

``` r
arrange(flights, year, month,day)
```

    ## # A tibble: 336,776 x 19
    ##     year month   day dep_time sched_dep_time dep_delay arr_time
    ##    <int> <int> <int>    <int>          <int>     <dbl>    <int>
    ##  1  2013     1     1      517            515         2      830
    ##  2  2013     1     1      533            529         4      850
    ##  3  2013     1     1      542            540         2      923
    ##  4  2013     1     1      544            545        -1     1004
    ##  5  2013     1     1      554            600        -6      812
    ##  6  2013     1     1      554            558        -4      740
    ##  7  2013     1     1      555            600        -5      913
    ##  8  2013     1     1      557            600        -3      709
    ##  9  2013     1     1      557            600        -3      838
    ## 10  2013     1     1      558            600        -2      753
    ## # ... with 336,766 more rows, and 12 more variables: sched_arr_time <int>,
    ## #   arr_delay <dbl>, carrier <chr>, flight <int>, tailnum <chr>,
    ## #   origin <chr>, dest <chr>, air_time <dbl>, distance <dbl>, hour <dbl>,
    ## #   minute <dbl>, time_hour <dttm>

we can also use the **desc** keyword to reduce the flight delays:

``` r
arrange(flights,desc(arr_delay))
```

    ## # A tibble: 336,776 x 19
    ##     year month   day dep_time sched_dep_time dep_delay arr_time
    ##    <int> <int> <int>    <int>          <int>     <dbl>    <int>
    ##  1  2013     1     9      641            900      1301     1242
    ##  2  2013     6    15     1432           1935      1137     1607
    ##  3  2013     1    10     1121           1635      1126     1239
    ##  4  2013     9    20     1139           1845      1014     1457
    ##  5  2013     7    22      845           1600      1005     1044
    ##  6  2013     4    10     1100           1900       960     1342
    ##  7  2013     3    17     2321            810       911      135
    ##  8  2013     7    22     2257            759       898      121
    ##  9  2013    12     5      756           1700       896     1058
    ## 10  2013     5     3     1133           2055       878     1250
    ## # ... with 336,766 more rows, and 12 more variables: sched_arr_time <int>,
    ## #   arr_delay <dbl>, carrier <chr>, flight <int>, tailnum <chr>,
    ## #   origin <chr>, dest <chr>, air_time <dbl>, distance <dbl>, hour <dbl>,
    ## #   minute <dbl>, time_hour <dttm>

### **Deformation(calculation) function** ----**mutate**

In the dplyr package, we can use the **mutate()** function to generate new variales directly from existing data, which is especially useful when using related classes and clustering algorithms.

``` r
mutate(flights, gain = arr_delay - dep_delay,speed = distance/air_time*60)
```

    ## # A tibble: 336,776 x 21
    ##     year month   day dep_time sched_dep_time dep_delay arr_time
    ##    <int> <int> <int>    <int>          <int>     <dbl>    <int>
    ##  1  2013     1     1      517            515         2      830
    ##  2  2013     1     1      533            529         4      850
    ##  3  2013     1     1      542            540         2      923
    ##  4  2013     1     1      544            545        -1     1004
    ##  5  2013     1     1      554            600        -6      812
    ##  6  2013     1     1      554            558        -4      740
    ##  7  2013     1     1      555            600        -5      913
    ##  8  2013     1     1      557            600        -3      709
    ##  9  2013     1     1      557            600        -3      838
    ## 10  2013     1     1      558            600        -2      753
    ## # ... with 336,766 more rows, and 14 more variables: sched_arr_time <int>,
    ## #   arr_delay <dbl>, carrier <chr>, flight <int>, tailnum <chr>,
    ## #   origin <chr>, dest <chr>, air_time <dbl>, distance <dbl>, hour <dbl>,
    ## #   minute <dbl>, time_hour <dttm>, gain <dbl>, speed <dbl>
…
The code above generates 2 new variables and rows of **gain** and **speed**. Gain is equal to the delay time of leaving time minus the time delay of arrival time, and speed is equal to the distance divided by time \* 60. From the ouput, we can see that thses 2 columns have been added to data.frame( the bottom Variable not shown).

Also, we could use **transform()** function to modify the existing function directly to form new rows(variables.) But if you want to keep the new formed rows(variables) only, you can use **transmute()** function.

``` r
transmute(flights,
          gain = arr_delay - dep_delay,
          gain_per_hour = gain / (air_time / 60)
          )
```

    ## # A tibble: 336,776 x 2
    ##     gain gain_per_hour
    ##    <dbl>         <dbl>
    ##  1     9      2.378855
    ##  2    16      4.229075
    ##  3    31     11.625000
    ##  4   -17     -5.573770
    ##  5   -19     -9.827586
    ##  6    16      6.400000
    ##  7    24      9.113924
    ##  8   -11    -12.452830
    ##  9    -5     -2.142857
    ## 10    10      4.347826
    ## # ... with 336,766 more rows
…
Besides, we can also use \*\* sample\_n()\*\* and **sample\_frac()** function to choose data randomly and calculate the exact part of data we want. This is very important, because the data gathering function, we can easily found the target data in the huge mountain. \#\#\# **grouping function**----**group\_by**

``` r
by_tailnum <- group_by(flights, tailnum)
delay <- summarise(by_tailnum,
                   count = n(),
                   dist = mean(distance, na.rm = TRUE),
                   delay = mean(arr_delay, na.rm = TRUE))
delay <- filter(delay,count>20, dist <2000)
delay
```

    ## # A tibble: 2,962 x 4
    ##    tailnum count     dist      delay
    ##      <chr> <int>    <dbl>      <dbl>
    ##  1  N0EGMQ   371 676.1887  9.9829545
    ##  2  N10156   153 757.9477 12.7172414
    ##  3  N102UW    48 535.8750  2.9375000
    ##  4  N103US    46 535.1957 -6.9347826
    ##  5  N104UW    47 535.2553  1.8043478
    ##  6  N10575   289 519.7024 20.6914498
    ##  7  N105UW    45 524.8444 -0.2666667
    ##  8  N107US    41 528.7073 -5.7317073
    ##  9  N108UW    60 534.5000 -1.2500000
    ## 10  N109UW    48 535.8750 -2.5208333
    ## # ... with 2,952 more rows

### **Multi-step operation concatenations**----**%&gt;%**

The pipeline operator in R is \*\* %&gt;% **, and this symbol can link a series of action functions. The pipe operator %&gt;% will connect the different code instructions. The **%&gt;%\*\* symbol will pass the output o the left to the right as the first parameter of the right function. It is useful to use the pipe operator when performing a continuous operations on a data set, which allows you to record the output of each operation not gradually.

``` r
flights2 <- mutate(flights,speed = distance /(air_time/60))
speed <- select(flights2,tailnum,speed)
speed %>%
  group_by(tailnum) %>%
  summarise(count = n(), avg_speed = mean(speed,na.rm = TRUE)) %>%
  arrange(desc(avg_speed))
```

    ## # A tibble: 4,044 x 3
    ##    tailnum count avg_speed
    ##      <chr> <int>     <dbl>
    ##  1  N228UA     1  500.8163
    ##  2  N315AS     1  498.6851
    ##  3  N654UA     1  498.5821
    ##  4  N819AW     1  490.3448
    ##  5  N382HA    26  485.6026
    ##  6  N388HA    36  484.3891
    ##  7  N391HA    21  484.0645
    ##  8  N777UA     1  483.3645
    ##  9  N385HA    28  482.8947
    ## 10  N392HA    13  482.2468
    ## # ... with 4,034 more rows
…
``` r
sample_frac(flights,0.01)
```

    ## # A tibble: 3,368 x 19
    ##     year month   day dep_time sched_dep_time dep_delay arr_time
    ##    <int> <int> <int>    <int>          <int>     <dbl>    <int>
    ##  1  2013     7    31     2100           2049        11       19
    ##  2  2013     1     9     1546           1540         6     1816
    ##  3  2013     8     3     1929           1858        31     2216
    ##  4  2013     3    17      817            815         2     1109
    ##  5  2013    12    24     1601           1600         1     1750
    ##  6  2013     5    18     2241           2245        -4     2352
    ##  7  2013     9    10     1205           1205         0     1354
    ##  8  2013     1    17      621            625        -4      738
    ##  9  2013    12    19     1921           1847        34     2150
    ## 10  2013     6    25      901            843        18     1011
    ## # ... with 3,358 more rows, and 12 more variables: sched_arr_time <int>,
    ## #   arr_delay <dbl>, carrier <chr>, flight <int>, tailnum <chr>,
    ## #   origin <chr>, dest <chr>, air_time <dbl>, distance <dbl>, hour <dbl>,
    ## #   minute <dbl>, time_hour <dttm>
…
now we want to display data with visualized picture

``` r
library("ggplot2")
```

    ## Warning: package 'ggplot2' was built under R version 3.4.2

``` r
delay
```

    ## # A tibble: 2,962 x 4
    ##    tailnum count     dist      delay
    ##      <chr> <int>    <dbl>      <dbl>
    ##  1  N0EGMQ   371 676.1887  9.9829545
    ##  2  N10156   153 757.9477 12.7172414
    ##  3  N102UW    48 535.8750  2.9375000
    ##  4  N103US    46 535.1957 -6.9347826
    ##  5  N104UW    47 535.2553  1.8043478
    ##  6  N10575   289 519.7024 20.6914498
    ##  7  N105UW    45 524.8444 -0.2666667
    ##  8  N107US    41 528.7073 -5.7317073
    ##  9  N108UW    60 534.5000 -1.2500000
    ## 10  N109UW    48 535.8750 -2.5208333
    ## # ... with 2,952 more rows
…
